…
conjunto_workflow <-
  conjunto_workflow %>% 
  workflow_map(resamples = reamostagens_treinamento,
               grid = 20,
               verbose = TRUE)

conjunto_workflow %>% rank_results(rank_metric = "roc_auc")

## # A tibble: 188 x 9
##    wflow_id     .config    .metric  mean std_err     n preprocessor model   rank
##    <chr>        <chr>      <chr>   <dbl>   <dbl> <int> <chr>        <chr>  <int>
##  1 base_randomF Preproces~ accura~ 0.795 0.00572    10 recipe       rand_~     1
##  2 base_randomF Preproces~ roc_auc 0.841 0.00789    10 recipe       rand_~     1
##  3 base_logit   Preproces~ accura~ 0.797 0.00664    10 recipe       logis~     2
##  4 base_logit   Preproces~ roc_auc 0.841 0.00722    10 recipe       logis~     2
##  5 base_logit   Preproces~ accura~ 0.798 0.00658    10 recipe       logis~     3
##  6 base_logit   Preproces~ roc_auc 0.841 0.00722    10 recipe       logis~     3
##  7 base_logit   Preproces~ accura~ 0.798 0.00656    10 recipe       logis~     4
##  8 base_logit   Preproces~ roc_auc 0.841 0.00718    10 recipe       logis~     4
##  9 base_logit   Preproces~ accura~ 0.798 0.00654    10 recipe       logis~     5
## 10 base_logit   Preproces~ roc_auc 0.841 0.00718    10 recipe       logis~     5
## # ... with 178 more rows
…
